%YAML 1.1
%TAG !u! tag:unity3d.com,2011:
--- !u!114 &6804185895204832465
MonoBehaviour:
  m_ObjectHideFlags: 0
  m_CorrespondingSourceObject: {fileID: 0}
  m_PrefabInstance: {fileID: 0}
  m_PrefabAsset: {fileID: 0}
  m_GameObject: {fileID: 576415507782554315}
  m_Enabled: 1
  m_EditorHideFlags: 0
  m_Script: {fileID: 11500000, guid: e55b81db690d54a46850e7043d074c6d, type: 3}
  m_Name: 
  m_EditorClassIdentifier: 
  neighborhood: 8.5
  speed: 0.25
  rightTurnRotation: 2.45
  leftTurnRotation: -1.37
--- !u!1001 &576415507782455293
PrefabInstance:
  m_ObjectHideFlags: 0
  serializedVersion: 2
  m_Modification:
    m_TransformParent: {fileID: 0}
    m_Modifications:
    - target: {fileID: 105782, guid: b2a936b57ff26be4491d67b1f6e532f3, type: 3}
      propertyPath: m_Name
      value: Classic_car_1955_style1 Variant
      objectReference: {fileID: 0}
    - target: {fileID: 408812, guid: b2a936b57ff26be4491d67b1f6e532f3, type: 3}
      propertyPath: m_LocalPosition.x
      value: -1.9
      objectReference: {fileID: 0}
    - target: {fileID: 408812, guid: b2a936b57ff26be4491d67b1f6e532f3, type: 3}
      propertyPath: m_LocalPosition.y
      value: 0.47
      objectReference: {fileID: 0}
    - target: {fileID: 408812, guid: b2a936b57ff26be4491d67b1f6e532f3, type: 3}
      propertyPath: m_LocalPosition.z
      value: 9.64491
      objectReference: {fileID: 0}
    - target: {fileID: 408812, guid: b2a936b57ff26be4491d67b1f6e532f3, type: 3}
      propertyPath: m_LocalRotation.x
      value: 0
      objectReference: {fileID: 0}
    - target: {fileID: 408812, guid: b2a936b57ff26be4491d67b1f6e532f3, type: 3}
      propertyPath: m_LocalRotation.y
      value: 0
      objectReference: {fileID: 0}
    - target: {fileID: 408812, guid: b2a936b57ff26be4491d67b1f6e532f3, type: 3}
      propertyPath: m_LocalRotation.z
      value: 0
      objectReference: {fileID: 0}
    - target: {fileID: 408812, guid: b2a936b57ff26be4491d67b1f6e532f3, type: 3}
      propertyPath: m_LocalRotation.w
      value: 1
      objectReference: {fileID: 0}
    - target: {fileID: 408812, guid: b2a936b57ff26be4491d67b1f6e532f3, type: 3}
      propertyPath: m_RootOrder
      value: 0
      objectReference: {fileID: 0}
    - target: {fileID: 408812, guid: b2a936b57ff26be4491d67b1f6e532f3, type: 3}
      propertyPath: m_LocalEulerAnglesHint.x
      value: 0
      objectReference: {fileID: 0}
    - target: {fileID: 408812, guid: b2a936b57ff26be4491d67b1f6e532f3, type: 3}
      propertyPath: m_LocalEulerAnglesHint.y
      value: 0
      objectReference: {fileID: 0}
    - target: {fileID: 408812, guid: b2a936b57ff26be4491d67b1f6e532f3, type: 3}
      propertyPath: m_LocalEulerAnglesHint.z
      value: 0
      objectReference: {fileID: 0}
    - target: {fileID: 408812, guid: b2a936b57ff26be4491d67b1f6e532f3, type: 3}
      propertyPath: m_LocalScale.x
      value: 0.047
      objectReference: {fileID: 0}
    - target: {fileID: 408812, guid: b2a936b57ff26be4491d67b1f6e532f3, type: 3}
      propertyPath: m_LocalScale.y
      value: 0.047
      objectReference: {fileID: 0}
    - target: {fileID: 408812, guid: b2a936b57ff26be4491d67b1f6e532f3, type: 3}
      propertyPath: m_LocalScale.z
      value: 0.047
      objectReference: {fileID: 0}
    - target: {fileID: 11149972, guid: b2a936b57ff26be4491d67b1f6e532f3, type: 3}
      propertyPath: m_PlayAutomatically
      value: 0
      objectReference: {fileID: 0}
    - target: {fileID: 11178754, guid: b2a936b57ff26be4491d67b1f6e532f3, type: 3}
      propertyPath: m_PlayAutomatically
      value: 0
      objectReference: {fileID: 0}
    - target: {fileID: 11121462, guid: b2a936b57ff26be4491d67b1f6e532f3, type: 3}
      propertyPath: m_PlayAutomatically
      value: 0
      objectReference: {fileID: 0}
    - target: {fileID: 11143210, guid: b2a936b57ff26be4491d67b1f6e532f3, type: 3}
      propertyPath: m_PlayAutomatically
      value: 0
      objectReference: {fileID: 0}
    - target: {fileID: 11154964, guid: b2a936b57ff26be4491d67b1f6e532f3, type: 3}
      propertyPath: m_PlayAutomatically
      value: 0
      objectReference: {fileID: 0}
    - target: {fileID: 11120202, guid: b2a936b57ff26be4491d67b1f6e532f3, type: 3}
      propertyPath: m_PlayAutomatically
      value: 0
      objectReference: {fileID: 0}
    - target: {fileID: 11161826, guid: b2a936b57ff26be4491d67b1f6e532f3, type: 3}
      propertyPath: m_PlayAutomatically
      value: 0
      objectReference: {fileID: 0}
    - target: {fileID: 11104062, guid: b2a936b57ff26be4491d67b1f6e532f3, type: 3}
      propertyPath: m_PlayAutomatically
      value: 0
      objectReference: {fileID: 0}
    - target: {fileID: 11134524, guid: b2a936b57ff26be4491d67b1f6e532f3, type: 3}
      propertyPath: m_PlayAutomatically
      value: 0
      objectReference: {fileID: 0}
    - target: {fileID: 11116878, guid: b2a936b57ff26be4491d67b1f6e532f3, type: 3}
      propertyPath: m_PlayAutomatically
      value: 0
      objectReference: {fileID: 0}
    m_RemovedComponents: []
  m_SourcePrefab: {fileID: 100100000, guid: b2a936b57ff26be4491d67b1f6e532f3, type: 3}
--- !u!1 &576415507782554315 stripped
GameObject:
  m_CorrespondingSourceObject: {fileID: 105782, guid: b2a936b57ff26be4491d67b1f6e532f3,
    type: 3}
  m_PrefabInstance: {fileID: 576415507782455293}
  m_PrefabAsset: {fileID: 0}
